Pipeline execution/tb/tb_1/core_pip_tb.vcd
$date
	Wed Dec 03 13:25:19 2025
$end
$version
	Icarus Verilog
$end
$timescale
	1ns
$end
$scope module core_pip_tb $end
$var reg 1 ! clk $end
$var reg 1 " rst $end
$scope module dut $end
$var wire 2 # ALUOp_ex [1:0] $end
$var wire 2 $ ALUOp_id [1:0] $end
$var wire 1 % ALUSrc_ex $end
$var wire 1 & ALUSrc_id $end
$var wire 1 ' Branch_ex $end
$var wire 1 ( Branch_id $end
$var wire 1 ) MemRead_ex $end
$var wire 1 * MemRead_ex_mem $end
$var wire 1 + MemRead_ex_out $end
$var wire 1 , MemRead_id $end
$var wire 1 - MemToReg_ex $end
$var wire 1 . MemToReg_ex_mem $end
$var wire 1 / MemToReg_ex_out $end
$var wire 1 0 MemToReg_id $end
$var wire 1 1 MemToReg_wb $end
$var wire 1 2 MemWrite_ex $end
$var wire 1 3 MemWrite_ex_mem $end
$var wire 1 4 MemWrite_ex_out $end
$var wire 1 5 MemWrite_id $end
$var wire 1 6 RegWrite_ex $end
$var wire 1 7 RegWrite_ex_mem $end
$var wire 1 8 RegWrite_ex_out $end
$var wire 1 9 RegWrite_id $end
$var wire 1 : RegWrite_wb $end
$var wire 32 ; alu_result_ex [31:0] $end
$var wire 32 < alu_result_ex_mem [31:0] $end
$var wire 32 = alu_result_wb [31:0] $end
$var wire 1 > branch_taken_ex $end
$var wire 32 ? branch_target_ex [31:0] $end
$var wire 1 @ clk $end
$var wire 1 A flush_id_ex $end
$var wire 1 B flush_id_ex_hazard $end
$var wire 1 C flush_if_id $end
$var wire 2 D forwardA [1:0] $end
$var wire 2 E forwardB [1:0] $end
$var wire 3 F funct3_ex [2:0] $end
$var wire 3 G funct3_id [2:0] $end
$var wire 1 H funct7_5_ex $end
$var wire 1 I funct7_5_id $end
$var wire 5 J if_id_rs1 [4:0] $end
$var wire 5 K if_id_rs2 [4:0] $end
$var wire 32 L imm_ex [31:0] $end
$var wire 32 M imm_id [31:0] $end
$var wire 32 N instr_id [31:0] $end
$var wire 32 O instr_if [31:0] $end
$var wire 32 P mem_read_data_mem [31:0] $end
$var wire 32 Q mem_read_data_wb [31:0] $end
$var wire 32 R pc_debug [31:0] $end
$var wire 32 S pc_ex [31:0] $end
$var wire 32 T pc_id [31:0] $end
$var wire 32 U pc_id_dec [31:0] $end
$var wire 32 V pc_if [31:0] $end
$var wire 5 W rd_ex [4:0] $end
$var wire 5 X rd_ex_mem [4:0] $end
$var wire 5 Y rd_ex_out [4:0] $end
$var wire 5 Z rd_id [4:0] $end
$var wire 5 [ rd_wb [4:0] $end
$var wire 32 \ rs1_data_ex [31:0] $end
$var wire 32 ] rs1_data_id [31:0] $end
$var wire 5 ^ rs1_ex [4:0] $end
$var wire 5 _ rs1_id [4:0] $end
$var wire 32 ` rs2_data_ex [31:0] $end
$var wire 32 a rs2_data_ex_mem [31:0] $end
$var wire 32 b rs2_data_fwd_ex [31:0] $end
$var wire 32 c rs2_data_id [31:0] $end
$var wire 5 d rs2_ex [4:0] $end
$var wire 5 e rs2_id [4:0] $end
$var wire 1 f rst $end
$var wire 1 g stall_if_id $end
$var wire 1 h stall_pc $end
$var wire 32 i wb_data [31:0] $end
$scope module u_fetch $end
$var wire 1 > branch_taken $end
$var wire 32 j branch_target [31:0] $end
$var wire 1 @ clk $end
$var wire 32 k instr [31:0] $end
$var wire 32 l instr_out [31:0] $end
$var wire 32 m pc_curr [31:0] $end
$var wire 32 n pc_next [31:0] $end
$var wire 32 o pc_next_branch [31:0] $end
$var wire 32 p pc_out [31:0] $end
$var wire 32 q pc_plus4 [31:0] $end
$var wire 1 f rst $end
$var wire 1 h stall_pc $end
$scope module u_pc_plus4 $end
$var wire 32 r a [31:0] $end
$var wire 32 s b [31:0] $end
$var wire 32 t sum [31:0] $end
$upscope $end
$scope module u_branch_mux $end
$var wire 32 u in0 [31:0] $end
$var wire 32 v in1 [31:0] $end
$var wire 1 > sel $end
$var reg 32 w out [31:0] $end
$upscope $end
$scope module u_stall_mux $end
$var wire 32 x in0 [31:0] $end
$var wire 32 y in1 [31:0] $end
$var wire 1 h sel $end
$var reg 32 z out [31:0] $end
$upscope $end
$scope module u_pc $end
$var wire 1 @ clk $end
$var wire 32 { pc_in [31:0] $end
$var wire 1 f rst $end
$var reg 32 | pc_out [31:0] $end
$upscope $end
$scope module u_inst_mem $end
$var wire 32 } instruction_out [31:0] $end
$var wire 32 ~ read_address [31:0] $end
$var wire 8 !" word_addr [7:0] $end
$upscope $end
$upscope $end
$scope module u_if_id_reg $end
$var wire 1 @ clk $end
$var wire 1 C flush $end
$var wire 32 "" instr_in [31:0] $end
$var wire 32 #" pc_in [31:0] $end
$var wire 1 f rst $end
$var wire 1 g stall $end
$var reg 32 $" instr_out [31:0] $end
$var reg 32 %" pc_out [31:0] $end
$upscope $end
$scope module u_wb_mux $end
$var wire 32 &" in0 [31:0] $end
$var wire 32 '" in1 [31:0] $end
$var wire 1 1 sel $end
$var reg 32 (" out [31:0] $end
$upscope $end
$scope module u_decode $end
$var wire 2 )" ALUOp [1:0] $end
$var wire 2 *" ALUOp_out [1:0] $end
$var wire 1 +" ALUSrc $end
$var wire 1 & ALUSrc_out $end
$var wire 1 ," Branch $end
$var wire 1 ( Branch_out $end
$var wire 1 -" MemRead $end
$var wire 1 , MemRead_out $end
$var wire 1 ." MemToReg $end
$var wire 1 0 MemToReg_out $end
$var wire 1 /" MemWrite $end
$var wire 1 5 MemWrite_out $end
$var wire 1 0" RegWrite $end
$var wire 1 9 RegWrite_out $end
$var wire 1 : RegWrite_wb $end
$var wire 1 @ clk $end
$var wire 3 1" funct3 [2:0] $end
$var wire 3 2" funct3_out [2:0] $end
$var wire 1 3" funct7_5 $end
$var wire 1 I funct7_5_out $end
$var wire 32 4" imm [31:0] $end
$var wire 32 5" imm_out [31:0] $end
$var wire 32 6" instr_in [31:0] $end
$var wire 7 7" opcode [6:0] $end
$var wire 32 8" pc_in [31:0] $end
$var wire 32 9" pc_out [31:0] $end
$var wire 5 :" rd [4:0] $end
$var wire 5 ;" rd_out [4:0] $end
$var wire 5 <" rd_wb [4:0] $end
$var wire 5 =" rs1 [4:0] $end
$var wire 32 >" rs1_data [31:0] $end
$var wire 32 ?" rs1_data_out [31:0] $end
$var wire 5 @" rs1_out [4:0] $end
$var wire 5 A" rs2 [4:0] $end
$var wire 32 B" rs2_data [31:0] $end
$var wire 32 C" rs2_data_out [31:0] $end
$var wire 5 D" rs2_out [4:0] $end
$var wire 1 f rst $end
$var wire 32 E" wb_data_wb [31:0] $end
$scope module u_control $end
$var wire 7 F" opcode [6:0] $end
$var reg 2 G" ALUOp [1:0] $end
$var reg 1 H" ALUSrc $end
$var reg 1 I" Branch $end
$var reg 1 J" MemRead $end
$var reg 1 K" MemToReg $end
$var reg 1 L" MemWrite $end
$var reg 1 M" RegWrite $end
$upscope $end
$scope module u_reg_file $end
$var wire 5 N" Rd [4:0] $end
$var wire 1 : RegWrite $end
$var wire 5 O" Rs1 [4:0] $end
$var wire 5 P" Rs2 [4:0] $end
$var wire 32 Q" Write_data [31:0] $end
$var wire 1 @ clk $end
$var wire 32 R" read_data1 [31:0] $end
$var wire 32 S" read_data2 [31:0] $end
$var wire 1 f rst $end
$var integer 32 T" i [31:0] $end
$upscope $end
$scope module u_imm $end
$var wire 32 U" instruction [31:0] $end
$var wire 7 V" opcode [6:0] $end
$var reg 32 W" imm_out [31:0] $end
$upscope $end
$upscope $end
$scope module u_id_ex_reg $end
$var wire 2 X" ALUOp_in [1:0] $end
$var wire 1 & ALUSrc_in $end
$var wire 1 ( Branch_in $end
$var wire 1 , MemRead_in $end
$var wire 1 0 MemToReg_in $end
$var wire 1 5 MemWrite_in $end
$var wire 1 9 RegWrite_in $end
$var wire 1 @ clk $end
$var wire 1 A flush $end
$var wire 3 Y" funct3_in [2:0] $end
$var wire 1 I funct7_5_in $end
$var wire 32 Z" imm_in [31:0] $end
$var wire 32 [" pc_in [31:0] $end
$var wire 5 \" rd_in [4:0] $end
$var wire 32 ]" rs1_data_in [31:0] $end
$var wire 5 ^" rs1_in [4:0] $end
$var wire 32 _" rs2_data_in [31:0] $end
$var wire 5 `" rs2_in [4:0] $end
$var wire 1 f rst $end
$var reg 2 a" ALUOp_out [1:0] $end
$var reg 1 b" ALUSrc_out $end
$var reg 1 c" Branch_out $end
$var reg 1 d" MemRead_out $end
$var reg 1 e" MemToReg_out $end
$var reg 1 f" MemWrite_out $end
$var reg 1 g" RegWrite_out $end
$var reg 3 h" funct3_out [2:0] $end
$var reg 1 i" funct7_5_out $end
$var reg 32 j" imm_out [31:0] $end
$var reg 32 k" pc_out [31:0] $end
$var reg 5 l" rd_out [4:0] $end
$var reg 32 m" rs1_data_out [31:0] $end
$var reg 5 n" rs1_out [4:0] $end
$var reg 32 o" rs2_data_out [31:0] $end
$var reg 5 p" rs2_out [4:0] $end
$upscope $end
$scope module u_hazard $end
$var wire 1 B flush_id_ex $end
$var wire 1 ) id_ex_memRead $end
$var wire 5 q" id_ex_rd [4:0] $end
$var wire 5 r" if_id_rs1 [4:0] $end
$var wire 5 s" if_id_rs2 [4:0] $end
$var wire 1 t" load_use_hazard $end
$var wire 1 g stall_if_id $end
$var wire 1 h stall_pc $end
$upscope $end
$scope module u_forwarding $end
$var wire 1 7 ex_mem_RegWrite $end
$var wire 5 u" ex_mem_rd [4:0] $end
$var wire 5 v" id_ex_rs1 [4:0] $end
$var wire 5 w" id_ex_rs2 [4:0] $end
$var wire 1 : mem_wb_RegWrite $end
$var wire 5 x" mem_wb_rd [4:0] $end
$var reg 2 y" forwardA [1:0] $end
$var reg 2 z" forwardB [1:0] $end
$upscope $end
$scope module u_execute $end
$var wire 2 {" ALUOp_in [1:0] $end
$var wire 1 % ALUSrc_in $end
$var wire 1 ' Branch_in $end
$var wire 1 ) MemRead_in $end
$var wire 1 + MemRead_out $end
$var wire 1 - MemToReg_in $end
$var wire 1 / MemToReg_out $end
$var wire 1 2 MemWrite_in $end
$var wire 1 4 MemWrite_out $end
$var wire 1 6 RegWrite_in $end
$var wire 1 8 RegWrite_out $end
$var wire 4 |" alu_ctrl [3:0] $end
$var wire 32 }" alu_in1 [31:0] $end
$var wire 32 ~" alu_in2 [31:0] $end
$var wire 32 !# alu_result [31:0] $end
$var wire 32 "# alu_result_out [31:0] $end
$var wire 1 ## branch_taken $end
$var wire 1 > branch_taken_out $end
$var wire 32 $# branch_target [31:0] $end
$var wire 32 %# branch_target_out [31:0] $end
$var wire 32 &# ex_mem_alu_result [31:0] $end
$var wire 2 '# forwardA [1:0] $end
$var wire 2 (# forwardB [1:0] $end
$var wire 3 )# funct3_in [2:0] $end
$var wire 1 H funct7_5_in $end
$var wire 32 *# imm_in [31:0] $end
$var wire 32 +# pc_in [31:0] $end
$var wire 5 ,# rd_in [4:0] $end
$var wire 5 -# rd_out [4:0] $end
$var wire 32 .# rs1_data_in [31:0] $end
$var wire 5 /# rs1_in [4:0] $end
$var wire 32 0# rs2_data_forwarded_out [31:0] $end
$var wire 32 1# rs2_data_in [31:0] $end
$var wire 5 2# rs2_in [4:0] $end
$var wire 32 3# wb_data [31:0] $end
$var wire 1 4# zero_flag $end
$var reg 32 5# opA [31:0] $end
$var reg 32 6# opB [31:0] $end
$scope module u_alu_src_mux $end
$var wire 32 7# in0 [31:0] $end
$var wire 32 8# in1 [31:0] $end
$var wire 1 % sel $end
$var reg 32 9# out [31:0] $end
$upscope $end
$scope module u_alu_control $end
$var wire 2 :# ALUOp [1:0] $end
$var wire 3 ;# funct3 [2:0] $end
$var wire 1 H funct7_5 $end
$var reg 4 <# ALUCtrl [3:0] $end
$upscope $end
$scope module u_alu $end
$var wire 32 =# A [31:0] $end
$var wire 32 ># B [31:0] $end
$var wire 4 ?# alu_ctrl [3:0] $end
$var reg 32 @# alu_out [31:0] $end
$var reg 1 A# zero $end
$upscope $end
$scope module u_branch_unit $end
$var wire 1 ' Branch $end
$var wire 3 B# funct3 [2:0] $end
$var wire 32 C# rs1_data [31:0] $end
$var wire 32 D# rs2_data [31:0] $end
$var wire 1 ## take_branch $end
$var reg 1 E# t $end
$upscope $end
$scope module u_branch_addr_adder $end
$var wire 32 F# a [31:0] $end
$var wire 32 G# b [31:0] $end
$var wire 32 H# sum [31:0] $end
$upscope $end
$upscope $end
$scope module u_ex_mem_reg $end
$var wire 1 + MemRead_in $end
$var wire 1 / MemToReg_in $end
$var wire 1 4 MemWrite_in $end
$var wire 1 8 RegWrite_in $end
$var wire 32 I# alu_result_in [31:0] $end
$var wire 1 @ clk $end
$var wire 5 J# rd_in [4:0] $end
$var wire 32 K# rs2_data_in [31:0] $end
$var wire 1 f rst $end
$var reg 1 L# MemRead_out $end
$var reg 1 M# MemToReg_out $end
$var reg 1 N# MemWrite_out $end
$var reg 1 O# RegWrite_out $end
$var reg 32 P# alu_result_out [31:0] $end
$var reg 5 Q# rd_out [4:0] $end
$var reg 32 R# rs2_data_out [31:0] $end
$upscope $end
$scope module u_memory $end
$var wire 1 * MemRead $end
$var wire 1 3 MemWrite $end
$var wire 32 S# addr_in [31:0] $end
$var wire 1 @ clk $end
$var wire 1 f rst $end
$var wire 8 T# word_addr [7:0] $end
$var wire 32 U# write_data_in [31:0] $end
$var integer 32 V# i [31:0] $end
$var reg 32 W# read_data_out [31:0] $end
$upscope $end
$scope module u_mem_wb_reg $end
$var wire 1 . MemToReg_in $end
$var wire 1 7 RegWrite_in $end
$var wire 32 X# alu_result_in [31:0] $end
$var wire 1 @ clk $end
$var wire 32 Y# mem_read_data_in [31:0] $end
$var wire 5 Z# rd_in [4:0] $end
$var wire 1 f rst $end
$var reg 1 [# MemToReg_out $end
$var reg 1 \# RegWrite_out $end
$var reg 32 ]# alu_result_out [31:0] $end
$var reg 32 ^# mem_read_data_out [31:0] $end
$var reg 5 _# rd_out [4:0] $end
$upscope $end
$upscope $end
$upscope $end
$enddefinitions $end
#0
$dumpvars
bx _#
bx ^#
bx ]#
x\#
x[#
bx Z#
b0 Y#
bx X#
b0 W#
bx V#
bx U#
bx T#
bx S#
bx R#
bx Q#
bx P#
xO#
xN#
xM#
xL#
bx K#
bx J#
bx I#
bx H#
bx G#
bx F#
xE#
bx D#
bx C#
bx B#
xA#
bx @#
bx ?#
bx >#
bx =#
bx <#
bx ;#
bx :#
bx 9#
bx 8#
bx 7#
bx 6#
bx 5#
x4#
bx 3#
bx 2#
bx 1#
bx 0#
bx /#
bx .#
bx -#
bx ,#
bx +#
bx *#
bx )#
bx (#
bx '#
bx &#
bx %#
bx $#
x##
bx "#
bx !#
bx ~"
bx }"
bx |"
bx {"
bx z"
bx y"
bx x"
bx w"
bx v"
bx u"
xt"
bx s"
bx r"
bx q"
bx p"
bx o"
bx n"
bx m"
bx l"
bx k"
bx j"
xi"
bx h"
xg"
xf"
xe"
xd"
xc"
xb"
bx a"
bx `"
bx _"
bx ^"
bx ]"
bx \"
bx ["
b0 Z"
bx Y"
b0 X"
b0 W"
bx V"
bx U"
bx T"
bx S"
bx R"
bx Q"
bx P"
bx O"
bx N"
0M"
0L"
0K"
0J"
0I"
0H"
b0 G"
bx F"
bx E"
bx D"
bx C"
bx B"
bx A"
bx @"
bx ?"
bx >"
bx ="
bx <"
bx ;"
bx :"
bx 9"
bx 8"
bx 7"
bx 6"
b0 5"
b0 4"
x3"
bx 2"
bx 1"
00"
0/"
0."
0-"
0,"
0+"
b0 *"
b0 )"
bx ("
bx '"
bx &"
bx %"
bx $"
bx #"
bx ""
bx !"
bx ~
bx }
bx |
bx {
bx z
bx y
bx x
bx w
bx v
bx u
bx t
b100 s
bx r
bx q
bx p
bx o
bx n
bx m
bx l
bx k
bx j
bx i
xh
xg
1f
bx e
bx d
bx c
bx b
bx a
bx `
bx _
bx ^
bx ]
bx \
bx [
bx Z
bx Y
bx X
bx W
bx V
bx U
bx T
bx S
bx R
bx Q
b0 P
bx O
bx N
b0 M
bx L
bx K
bx J
xI
xH
bx G
bx F
bx E
bx D
xC
xB
xA
0@
bx ?
x>
bx =
bx <
bx ;
x:
09
x8
x7
x6
05
x4
x3
x2
x1
00
x/
x.
x-
0,
x+
x*
x)
0(
x'
0&
x%
b0 $
bx #
1"
0!
$end
#5
b0 >"
b0 R"
b0 ]
b0 ?"
b0 ]"
b0 B"
b0 S"
b0 c
b0 C"
b0 _"
0A
0h
0g
0B
0t"
1A#
14#
b0 @#
b0 !#
b0 ;
b0 "#
b0 I#
b10010011 k
b10010011 }
b10010011 O
b10010011 l
b10010011 ""
b0 !"
b100 z
b100 n
b100 {
b0 7"
b0 F"
b0 :"
b0 Z
b0 ;"
b0 \"
b0 1"
b0 G
b0 2"
b0 Y"
b0 ="
b0 O"
b0 _
b0 @"
b0 ^"
b0 A"
b0 P"
b0 e
b0 D"
b0 `"
03"
0I
b0 V"
b0 K
b0 s"
b0 J
b0 r"
0E#
0##
0>
0C
b0 <#
b0 |"
b0 ?#
b100 w
b100 o
b100 x
b0 9#
b0 ~"
b0 >#
b0 T#
b0 6#
b0 7#
b0 D#
b0 b
b0 0#
b0 K#
b0 5#
b0 C#
b0 }"
b0 =#
b0 ("
b0 i
b0 E"
b0 Q"
b0 3#
b0 z"
b0 E
b0 (#
b0 y"
b0 D
b0 '#
b0 |
b100 q
b100 t
b100 u
b0 m
b0 r
b0 y
b0 ~
b0 V
b0 p
b0 #"
b0 R
b0 $"
b0 N
b0 6"
b0 U"
b0 %"
b0 U
b0 9"
b0 ["
b0 T
b0 8"
b0 a"
b0 #
b0 {"
b0 :#
0c"
0'
0b"
0%
0e"
0/
0-
0f"
04
02
0d"
0+
0)
0g"
08
06
0i"
0H
b0 h"
b0 F
b0 )#
b0 ;#
b0 B#
b0 l"
b0 Y
b0 -#
b0 J#
b0 W
b0 q"
b0 ,#
b0 p"
b0 d
b0 w"
b0 2#
b0 n"
b0 ^
b0 v"
b0 /#
b0 j"
b0 $#
b0 H#
b0 ?
b0 j
b0 v
b0 %#
b0 L
b0 *#
b0 8#
b0 G#
b0 o"
b0 `
b0 1#
b0 m"
b0 \
b0 .#
b0 k"
b0 S
b0 +#
b0 F#
b0 Q#
b0 X
b0 u"
b0 Z#
b0 R#
b0 a
b0 U#
b0 P#
b0 <
b0 &#
b0 S#
b0 X#
0M#
0.
0N#
03
0L#
0*
0O#
07
b0 _#
b0 [
b0 <"
b0 N"
b0 x"
b0 ^#
b0 Q
b0 '"
b0 ]#
b0 =
b0 &"
0[#
01
0\#
0:
b100000 T"
b100000000 V#
1!
1@
#10
0!
0@
#15
b100000000 V#
b100000 T"
1!
1@
#20
0!
0@
0"
0f
#25
b1000 z
b1000 n
b1000 {
1H"
1+"
1&
1M"
10"
19
b10 G"
b10 )"
b10 $
b10 *"
b10 X"
b10000000000000100010011 k
b10000000000000100010011 }
b10000000000000100010011 O
b10000000000000100010011 l
b10000000000000100010011 ""
b1 !"
b1000 w
b1000 o
b1000 x
b10011 7"
b10011 F"
b1 :"
b1 Z
b1 ;"
b1 \"
b10011 V"
b100 |
b1000 q
b1000 t
b1000 u
b100 m
b100 r
b100 y
b100 ~
b100 V
b100 p
b100 #"
b100 R
b10010011 $"
b10010011 N
b10010011 6"
b10010011 U"
1!
1@
#30
0!
0@
#35
b1100 z
b1100 n
b1100 {
b10 :"
b10 Z
b10 ;"
b10 \"
b100 A"
b100 P"
b100 e
b100 D"
b100 `"
b100 K
b100 s"
b100 W"
b100 4"
b100 M
b100 5"
b100 Z"
b1000001000001000110011 k
b1000001000001000110011 }
b1000001000001000110011 O
b1000001000001000110011 l
b1000001000001000110011 ""
b10 !"
b1100 w
b1100 o
b1100 x
b10 a"
b10 #
b10 {"
b10 :#
1b"
1%
1g"
18
16
b1 l"
b1 Y
b1 -#
b1 J#
b1 W
b1 q"
b1 ,#
b10000000000000100010011 $"
b10000000000000100010011 N
b10000000000000100010011 6"
b10000000000000100010011 U"
b100 %"
b100 U
b100 9"
b100 ["
b100 T
b100 8"
b1000 |
b1100 q
b1100 t
b1100 u
b1000 m
b1000 r
b1000 y
b1000 ~
b1000 V
b1000 p
b1000 #"
b1000 R
1!
1@
#40
0!
0@
#45
0H"
0+"
0&
0A#
04#
b100 @#
b100 !#
b100 ;
b100 "#
b100 I#
b10000010010000000100011 k
b10000010010000000100011 }
b10000010010000000100011 O
b10000010010000000100011 l
b10000010010000000100011 ""
b11 !"
b10000 z
b10000 n
b10000 {
b110011 7"
b110011 F"
b100 :"
b100 Z
b100 ;"
b100 \"
b1 ="
b1 O"
b1 _
b1 @"
b1 ^"
b10 A"
b10 P"
b10 e
b10 D"
b10 `"
b110011 V"
b10 K
b10 s"
b1 J
b1 r"
b0 W"
b0 4"
b0 M
b0 5"
b0 Z"
b100 9#
b100 ~"
b100 >#
b10000 w
b10000 o
b10000 x
b1100 |
b10000 q
b10000 t
b10000 u
b1100 m
b1100 r
b1100 y
b1100 ~
b1100 V
b1100 p
b1100 #"
b1100 R
b1000001000001000110011 $"
b1000001000001000110011 N
b1000001000001000110011 6"
b1000001000001000110011 U"
b1000 %"
b1000 U
b1000 9"
b1000 ["
b1000 T
b1000 8"
b10 l"
b10 Y
b10 -#
b10 J#
b10 W
b10 q"
b10 ,#
b100 p"
b100 d
b100 w"
b100 2#
b100 j"
b100 L
b100 *#
b100 8#
b100 G#
b100 k"
b1000 $#
b1000 H#
b1000 ?
b1000 j
b1000 v
b1000 %#
b100 S
b100 +#
b100 F#
b1 Q#
b1 X
b1 u"
b1 Z#
1O#
17
1!
1@
#50
0!
0@
#55
0A#
04#
b100 @#
b100 !#
b100 ;
b100 "#
b100 I#
1H"
1+"
1&
0M"
00"
09
1L"
1/"
15
b0 G"
b0 )"
b0 $
b0 *"
b0 X"
b10100 z
b10100 n
b10100 {
b1 T#
b100 6#
b100 7#
b100 D#
b100 b
b100 0#
b100 K#
b1 y"
b1 D
b1 '#
b10 z"
b10 E
b10 (#
b100 9#
b100 ~"
b100 >#
b100011 7"
b100011 F"
b0 :"
b0 Z
b0 ;"
b0 \"
b10 1"
b10 G
b10 2"
b10 Y"
b10 ="
b10 O"
b10 _
b10 @"
b10 ^"
b100 A"
b100 P"
b100 e
b100 D"
b100 `"
b100011 V"
b100 K
b100 s"
b10 J
b10 r"
b10000010010001010000011 k
b10000010010001010000011 }
b10000010010001010000011 O
b10000010010001010000011 l
b10000010010001010000011 ""
b100 !"
b10100 w
b10100 o
b10100 x
b1 _#
b1 [
b1 <"
b1 N"
b1 x"
1\#
1:
b10 Q#
b10 X
b10 u"
b10 Z#
b100 P#
b100 <
b100 &#
b100 S#
b100 X#
0b"
0%
b100 l"
b100 Y
b100 -#
b100 J#
b100 W
b100 q"
b100 ,#
b10 p"
b10 d
b10 w"
b10 2#
b1 n"
b1 ^
b1 v"
b1 /#
b0 j"
b0 L
b0 *#
b0 8#
b0 G#
b1000 k"
b1000 $#
b1000 H#
b1000 ?
b1000 j
b1000 v
b1000 %#
b1000 S
b1000 +#
b1000 F#
b10000010010000000100011 $"
b10000010010000000100011 N
b10000010010000000100011 6"
b10000010010000000100011 U"
b1100 %"
b1100 U
b1100 9"
b1100 ["
b1100 T
b1100 8"
b10000 |
b10100 q
b10100 t
b10100 u
b10000 m
b10000 r
b10000 y
b10000 ~
b10000 V
b10000 p
b10000 #"
b10000 R
1!
1@
#60
0!
0@
#65
1K"
1."
10
1M"
10"
19
1J"
1-"
1,
0L"
0/"
05
b100 5#
b100 C#
b100 }"
b100 =#
b100 6#
b100 7#
b100 D#
b100 b
b100 0#
b100 K#
b10100000000001100010011 k
b10100000000001100010011 }
b10100000000001100010011 O
b10100000000001100010011 l
b10100000000001100010011 ""
b101 !"
b11000 z
b11000 n
b11000 {
b11 7"
b11 F"
b101 :"
b101 Z
b101 ;"
b101 \"
b11 V"
b100 W"
b100 4"
b100 M
b100 5"
b100 Z"
b0 9#
b0 ~"
b0 >#
b11000 w
b11000 o
b11000 x
b10 z"
b10 E
b10 (#
b1 y"
b1 D
b1 '#
b100 ("
b100 i
b100 E"
b100 Q"
b100 3#
b10100 |
b11000 q
b11000 t
b11000 u
b10100 m
b10100 r
b10100 y
b10100 ~
b10100 V
b10100 p
b10100 #"
b10100 R
b10000010010001010000011 $"
b10000010010001010000011 N
b10000010010001010000011 6"
b10000010010001010000011 U"
b10000 %"
b10000 U
b10000 9"
b10000 ["
b10000 T
b10000 8"
b0 a"
b0 #
b0 {"
b0 :#
1b"
1%
1f"
14
12
0g"
08
06
b10 h"
b10 F
b10 )#
b10 ;#
b10 B#
b0 l"
b0 Y
b0 -#
b0 J#
b0 W
b0 q"
b0 ,#
b100 p"
b100 d
b100 w"
b100 2#
b10 n"
b10 ^
b10 v"
b10 /#
b1100 k"
b1100 $#
b1100 H#
b1100 ?
b1100 j
b1100 v
b1100 %#
b1100 S
b1100 +#
b1100 F#
b100 Q#
b100 X
b100 u"
b100 Z#
b100 R#
b100 a
b100 U#
b10 _#
b10 [
b10 <"
b10 N"
b10 x"
b100 ]#
b100 =
b100 &"
1!
1@
#70
0!
0@
#75
1A
b100 6#
b100 7#
b100 D#
b100 b
b100 0#
b100 K#
b0 5#
b0 C#
b0 }"
b0 =#
1h
1g
1B
1t"
b100 @#
b100 !#
b100 ;
b100 "#
b100 I#
0K"
0."
00
0J"
0-"
0,
b10 G"
b10 )"
b10 $
b10 *"
b10 X"
b11000 z
b11000 n
b11000 {
b1 z"
b1 E
b1 (#
b0 y"
b0 D
b0 '#
b100 9#
b100 ~"
b100 >#
b10011 7"
b10011 F"
b110 :"
b110 Z
b110 ;"
b110 \"
b0 1"
b0 G
b0 2"
b0 Y"
b0 ="
b0 O"
b0 _
b0 @"
b0 ^"
b101 A"
b101 P"
b101 e
b101 D"
b101 `"
b10011 V"
b101 K
b101 s"
b0 J
b0 r"
b101 W"
b101 4"
b101 M
b101 5"
b101 Z"
bx k
bx }
bx O
bx l
bx ""
b110 !"
b11100 w
b11100 o
b11100 x
b100 _#
b100 [
b100 <"
b100 N"
b100 x"
b0 Q#
b0 X
b0 u"
b0 Z#
1N#
13
0O#
07
1e"
1/
1-
0f"
04
02
1d"
1+
1)
1g"
18
16
b101 l"
b101 Y
b101 -#
b101 J#
b101 W
b101 q"
b101 ,#
b100 j"
b100 L
b100 *#
b100 8#
b100 G#
b10000 k"
b10100 $#
b10100 H#
b10100 ?
b10100 j
b10100 v
b10100 %#
b10000 S
b10000 +#
b10000 F#
b10100000000001100010011 $"
b10100000000001100010011 N
b10100000000001100010011 6"
b10100000000001100010011 U"
b10100 %"
b10100 U
b10100 9"
b10100 ["
b10100 T
b10100 8"
b11000 |
b11100 q
b11100 t
b11100 u
b11000 m
b11000 r
b11000 y
b11000 ~
b11000 V
b11000 p
b11000 #"
b11000 R
1!
1@
#80
0!
0@
#85
b11100 z
b11100 n
b11100 {
0A
0h
0g
0B
0t"
b100 6#
b100 7#
b100 D#
b100 b
b100 0#
b100 K#
b100 W#
b100 P
b100 Y#
b10 z"
b10 E
b10 (#
0b"
0%
0e"
0/
0-
0d"
0+
0)
0g"
08
06
b0 h"
b0 F
b0 )#
b0 ;#
b0 B#
b110 l"
b110 Y
b110 -#
b110 J#
b110 W
b110 q"
b110 ,#
b101 p"
b101 d
b101 w"
b101 2#
b0 n"
b0 ^
b0 v"
b0 /#
b101 j"
b101 L
b101 *#
b101 8#
b101 G#
b10100 k"
b11001 $#
b11001 H#
b11001 ?
b11001 j
b11001 v
b11001 %#
b10100 S
b10100 +#
b10100 F#
b101 Q#
b101 X
b101 u"
b101 Z#
1M#
1.
0N#
03
1L#
1*
1O#
17
b0 _#
b0 [
b0 <"
b0 N"
b0 x"
0\#
0:
1!
1@
#90
0!
0@
#95
b100 6#
b100 7#
b100 D#
b100 b
b100 0#
b100 K#
b101 @#
b101 !#
b101 ;
b101 "#
b101 I#
0H"
0+"
0&
0M"
00"
09
b0 G"
b0 )"
b0 $
b0 *"
b0 X"
bx >"
bx R"
bx ]
bx ?"
bx ]"
bx B"
bx S"
bx c
bx C"
bx _"
b100000 z
b100000 n
b100000 {
b0 W#
b0 P
b0 Y#
b1 z"
b1 E
b1 (#
b101 9#
b101 ~"
b101 >#
bx 7"
bx F"
bx :"
bx Z
bx ;"
bx \"
bx 1"
bx G
bx 2"
bx Y"
bx ="
bx O"
bx _
bx @"
bx ^"
bx A"
bx P"
bx e
bx D"
bx `"
x3"
xI
bx V"
bx K
bx s"
bx J
bx r"
b0 W"
b0 4"
b0 M
b0 5"
b0 Z"
b111 !"
b100000 w
b100000 o
b100000 x
b101 _#
b101 [
b101 <"
b101 N"
b101 x"
b100 ^#
b100 Q
b100 '"
1[#
11
1\#
1:
b110 Q#
b110 X
b110 u"
b110 Z#
0M#
0.
0L#
0*
0O#
07
b10 a"
b10 #
b10 {"
b10 :#
1b"
1%
1g"
18
16
bx $"
bx N
bx 6"
bx U"
b11000 %"
b11000 U
b11000 9"
b11000 ["
b11000 T
b11000 8"
b11100 |
b100000 q
b100000 t
b100000 u
b11100 m
b11100 r
b11100 y
b11100 ~
b11100 V
b11100 p
b11100 #"
b11100 R
1!
1@
#100
0!
0@
